(module pro_mini (layer F.Cu) (tedit 55A3E6CB)
  (descr "IC, ARDUINO_PRO_MINI x 0,6\"")
  (tags "DIL ARDUINO PRO MINI")
  (fp_text reference REF** (at -13.97 10.16) (layer F.SilkS)
    (effects (font (size 0.8 0.8) (thickness 0.16)))
  )
  (fp_text value ArduinoProMini (at 0 0) (layer F.Fab) hide
    (effects (font (size 0.8 0.8) (thickness 0.16)))
  )
  (fp_line (start 15.24 9.144) (end 15.24 -8.89) (layer F.SilkS) (width 0.15))
  (fp_line (start -17.526 -8.89) (end -17.526 9.144) (layer F.SilkS) (width 0.15))
  (fp_line (start 15.24 9.144) (end -17.526 9.144) (layer F.SilkS) (width 0.15))
  (fp_line (start -17.526 -8.89) (end 15.24 -8.89) (layer F.SilkS) (width 0.15))
  (pad 28 thru_hole oval (at 5.08 -5.08) (size 1.50114 2.19964) (drill 0.8001) (layers *.Cu *.Mask F.SilkS))
  (pad 27 thru_hole oval (at 7.62 -5.08) (size 1.50114 2.19964) (drill 0.8001) (layers *.Cu *.Mask F.SilkS))
  (pad 1 thru_hole oval (at -13.97 7.62) (size 1.50114 2.19964) (drill 0.8001) (layers *.Cu *.Mask F.SilkS))
  (pad 2 thru_hole oval (at -11.43 7.62) (size 1.50114 2.19964) (drill 0.8001) (layers *.Cu *.Mask F.SilkS))
  (pad 3 thru_hole oval (at -8.89 7.62) (size 1.50114 2.19964) (drill 0.8001) (layers *.Cu *.Mask F.SilkS))
  (pad 4 thru_hole oval (at -6.35 7.62) (size 1.50114 2.19964) (drill 0.8001) (layers *.Cu *.Mask F.SilkS))
  (pad 5 thru_hole oval (at -3.81 7.62) (size 1.50114 2.19964) (drill 0.8001) (layers *.Cu *.Mask F.SilkS))
  (pad 6 thru_hole oval (at -1.27 7.62) (size 1.50114 2.19964) (drill 0.8001) (layers *.Cu *.Mask F.SilkS))
  (pad 7 thru_hole oval (at 1.27 7.62) (size 1.50114 2.19964) (drill 0.8001) (layers *.Cu *.Mask F.SilkS))
  (pad 8 thru_hole oval (at 3.81 7.62) (size 1.50114 2.19964) (drill 0.8001) (layers *.Cu *.Mask F.SilkS))
  (pad 9 thru_hole oval (at 6.35 7.62) (size 1.50114 2.19964) (drill 0.8001) (layers *.Cu *.Mask F.SilkS))
  (pad 10 thru_hole oval (at 8.89 7.62) (size 1.50114 2.19964) (drill 0.8001) (layers *.Cu *.Mask F.SilkS))
  (pad 11 thru_hole oval (at 11.43 7.62) (size 1.50114 2.19964) (drill 0.8001) (layers *.Cu *.Mask F.SilkS))
  (pad 12 thru_hole oval (at 13.97 7.62) (size 1.50114 2.19964) (drill 0.8001) (layers *.Cu *.Mask F.SilkS))
  (pad 13 thru_hole oval (at 13.97 -7.62) (size 1.50114 2.19964) (drill 0.8001) (layers *.Cu *.Mask F.SilkS))
  (pad 14 thru_hole oval (at 11.43 -7.62) (size 1.50114 2.19964) (drill 0.8001) (layers *.Cu *.Mask F.SilkS))
  (pad 15 thru_hole oval (at 8.89 -7.62) (size 1.50114 2.19964) (drill 0.8001) (layers *.Cu *.Mask F.SilkS))
  (pad 16 thru_hole oval (at 6.35 -7.62) (size 1.50114 2.19964) (drill 0.8001) (layers *.Cu *.Mask F.SilkS))
  (pad 17 thru_hole oval (at 3.81 -7.62) (size 1.50114 2.19964) (drill 0.8001) (layers *.Cu *.Mask F.SilkS))
  (pad 18 thru_hole oval (at 1.27 -7.62) (size 1.50114 2.19964) (drill 0.8001) (layers *.Cu *.Mask F.SilkS))
  (pad 19 thru_hole oval (at -1.27 -7.62) (size 1.50114 2.19964) (drill 0.8001) (layers *.Cu *.Mask F.SilkS))
  (pad 20 thru_hole oval (at -3.81 -7.62) (size 1.50114 2.19964) (drill 0.8001) (layers *.Cu *.Mask F.SilkS))
  (pad 21 thru_hole oval (at -6.35 -7.62) (size 1.50114 2.19964) (drill 0.8001) (layers *.Cu *.Mask F.SilkS))
  (pad 22 thru_hole oval (at -8.89 -7.62) (size 1.50114 2.19964) (drill 0.8001) (layers *.Cu *.Mask F.SilkS))
  (pad 23 thru_hole oval (at -11.43 -7.62) (size 1.50114 2.19964) (drill 0.8001) (layers *.Cu *.Mask F.SilkS))
  (pad 24 thru_hole oval (at -13.97 -7.62) (size 1.50114 2.19964) (drill 0.8001) (layers *.Cu *.Mask F.SilkS))
  (pad 25 thru_hole oval (at -2.54 -5.08) (size 1.50114 2.19964) (drill 0.8001) (layers *.Cu *.Mask F.SilkS))
  (pad 26 thru_hole oval (at -5.08 -5.08) (size 1.50114 2.19964) (drill 0.8001) (layers *.Cu *.Mask F.SilkS))
  (pad 27 thru_hole oval (at 13.97 -5.08) (size 2.19964 1.50114) (drill 0.8001) (layers *.Cu *.Mask F.SilkS))
  (pad 28 thru_hole oval (at 13.97 -2.54) (size 2.19964 1.50114) (drill 0.8001) (layers *.Cu *.Mask F.SilkS))
  (pad 29 thru_hole oval (at 13.97 0) (size 2.19964 1.50114) (drill 0.8001) (layers *.Cu *.Mask F.SilkS))
  (model Socket_Strips.3dshapes/Socket_Strip_Straight_1x02_Pitch2.54mm.wrl
    (at (xyz -0.15 0.2 0))
    (scale (xyz 1 1 1))
    (rotate (xyz 0 0 0))
  )
  (model Socket_Strips.3dshapes/Socket_Strip_Straight_1x03_Pitch2.54mm.wrl
    (at (xyz 0.55 0.1 0))
    (scale (xyz 1 1 1))
    (rotate (xyz 0 0 90))
  )
  (model Socket_Strips.3dshapes/Socket_Strip_Straight_1x12_Pitch2.54mm.wrl
    (at (xyz 0 0.3 0))
    (scale (xyz 1 1 1))
    (rotate (xyz 0 0 0))
  )
  (model Socket_Strips.3dshapes/Socket_Strip_Straight_1x12_Pitch2.54mm.wrl
    (at (xyz 0 -0.3 0))
    (scale (xyz 1 1 1))
    (rotate (xyz 0 0 0))
  )
  (model Socket_Strips.3dshapes/Socket_Strip_Straight_1x02_Pitch2.54mm.wrl
    (at (xyz 0.25 0.2 0))
    (scale (xyz 1 1 1))
    (rotate (xyz 0 0 0))
  )
  (model ${MYSLOCAL}/mysensors.3dshapes/mysensors_arduino.3dshapes/arduino_pro_mini.wrl
    (at (xyz -0.05 0 0.48))
    (scale (xyz 0.395 0.395 0.395))
    (rotate (xyz 0 0 180))
  )
  (model SMD_Packages.3dshapes/TQFP-32.wrl
    (at (xyz 0.05 0 0.5125))
    (scale (xyz 1 1 1))
    (rotate (xyz 0 0 315))
  )
  (model Pin_Headers.3dshapes/Pin_Header_Straight_1x12_Pitch2.54mm.wrl
    (at (xyz 0.55 -0.3 0.445))
    (scale (xyz 1 1 1))
    (rotate (xyz 0 180 90))
  )
  (model Pin_Headers.3dshapes/Pin_Header_Straight_1x12_Pitch2.54mm.wrl
    (at (xyz 0.55 0.3 0.445))
    (scale (xyz 1 1 1))
    (rotate (xyz 0 180 90))
  )
  (model Pin_Headers.3dshapes/Pin_Header_Straight_1x03_Pitch2.54mm.wrl
    (at (xyz 0.55 0.2 0.445))
    (scale (xyz 1 1 1))
    (rotate (xyz 0 180 0))
  )
  (model Pin_Headers.3dshapes/Pin_Header_Straight_1x02_Pitch2.54mm.wrl
    (at (xyz 0.3 0.2 0.445))
    (scale (xyz 1 1 1))
    (rotate (xyz 0 180 90))
  )
  (model Pin_Headers.3dshapes/Pin_Header_Straight_1x02_Pitch2.54mm.wrl
    (at (xyz -0.1 0.2 0.445))
    (scale (xyz 1 1 1))
    (rotate (xyz 0 180 90))
  )
  (model ${MYSLOCAL}/mysensors.3dshapes/w.lain.3dshapes/smd_leds/led_0603.wrl
    (at (xyz -0.3 0 0.5125))
    (scale (xyz 1 1 1))
    (rotate (xyz 0 0 0))
  )
  (model ${MYSLOCAL}/mysensors.3dshapes/w.lain.3dshapes/smd_leds/led_0603.wrl
    (at (xyz 0.55 -0.175 0.5125))
    (scale (xyz 1 1 1))
    (rotate (xyz 0 0 0))
  )
  (model Pin_Headers.3dshapes/Pin_Header_Angled_1x06_Pitch2.54mm.wrl
    (at (xyz -0.65 -0.25 0.5125))
    (scale (xyz 1 1 1))
    (rotate (xyz 0 0 180))
  )
  (model Resistors_SMD.3dshapes/R_0603.wrl
    (at (xyz -0.3 -0.05 0.5125))
    (scale (xyz 1 1 1))
    (rotate (xyz 0 0 0))
  )
  (model Resistors_SMD.3dshapes/R_0603.wrl
    (at (xyz 0.55 -0.125 0.5125))
    (scale (xyz 1 1 1))
    (rotate (xyz 0 0 0))
  )
  (model Capacitors_SMD.3dshapes/C_0603.wrl
    (at (xyz -0.3 0.05 0.5125))
    (scale (xyz 1 1 1))
    (rotate (xyz 0 0 0))
  )
  (model Capacitors_Tantalum_SMD.3dshapes/CP_Tantalum_Case-S_EIA-3216-12.wrl
    (at (xyz -0.35 0.15 0.5125))
    (scale (xyz 1 1 1))
    (rotate (xyz 0 0 0))
  )
  (model Capacitors_Tantalum_SMD.3dshapes/CP_Tantalum_Case-S_EIA-3216-12.wrl
    (at (xyz -0.35 -0.15 0.5125))
    (scale (xyz 1 1 1))
    (rotate (xyz 0 0 0))
  )
  (model TO_SOT_Packages_SMD.3dshapes/SOT-23-5.wrl
    (at (xyz -0.4 0 0.5125))
    (scale (xyz 1 1 1))
    (rotate (xyz 0 0 90))
  )
  (model Capacitors_SMD.3dshapes/C_1210.wrl
    (at (xyz -0.5 0 0.5125))
    (scale (xyz 1 1 1))
    (rotate (xyz 0 0 90))
  )
  (model ${MYSLOCAL}/mysensors.3dshapes/w.lain.3dshapes/switch/smd_push.wrl
    (at (xyz 0.4 0 0.5125))
    (scale (xyz 1 1 1))
    (rotate (xyz 0 0 90))
  )
)

